{
  "10.00": {
    "default": [
      {"frag_grenade": ["ITEM", "000EEBED", 5]},
      {"ghoul": ["NPC", "758ad", 2, true]}
    ]
  },

  "20.00": {
    "default": [
      {"stimpack": ["ITEM", "00023736", 20]},
      {"glowing_radroach": ["NPC", "001BBEAA", 5, true]}
    ]
  },

  "30.00": {
    "default": [
      {"perk_points": ["COMMAND", "CGF \"Game.AddPerkPoints\" 3"]},
      {"glowing_radroach": ["NPC", "001BBEAA", 7, true]}
    ]
  },

  "40.00": {
    "default": [
      {"ammo_shotgun": ["ITEM", "1f673", 40]},
      {"deathclaw": ["NPC", "1db4c", 1, false]}
    ]
  },

  "50.00": {
    "default": [
      {"kill_all_hostiles": ["COMMAND", "kah"]},
      {"albino_angler": ["NPC", "009585", 1, false, "DLCCoast.esm"]}
    ]
  }
}
